vhdl/simulation/qsim/mips.msim.vcd
$comment
	File created using the following command:
		vcd file mips.msim.vcd -direction
$end
$date
	Tue Oct 27 17:40:43 2020
$end
$version
	ModelSim Version 2020.1
$end
$timescale
	1ps
$end

$scope module cpu_vhd_vec_tst $end
$var wire 1 ! clock $end
$var wire 1 " control_points_pin [3] $end
$var wire 1 # control_points_pin [2] $end
$var wire 1 $ control_points_pin [1] $end
$var wire 1 % control_points_pin [0] $end
$var wire 1 & ula_out [31] $end
$var wire 1 ' ula_out [30] $end
$var wire 1 ( ula_out [29] $end
$var wire 1 ) ula_out [28] $end
$var wire 1 * ula_out [27] $end
$var wire 1 + ula_out [26] $end
$var wire 1 , ula_out [25] $end
$var wire 1 - ula_out [24] $end
$var wire 1 . ula_out [23] $end
$var wire 1 / ula_out [22] $end
$var wire 1 0 ula_out [21] $end
$var wire 1 1 ula_out [20] $end
$var wire 1 2 ula_out [19] $end
$var wire 1 3 ula_out [18] $end
$var wire 1 4 ula_out [17] $end
$var wire 1 5 ula_out [16] $end
$var wire 1 6 ula_out [15] $end
$var wire 1 7 ula_out [14] $end
$var wire 1 8 ula_out [13] $end
$var wire 1 9 ula_out [12] $end
$var wire 1 : ula_out [11] $end
$var wire 1 ; ula_out [10] $end
$var wire 1 < ula_out [9] $end
$var wire 1 = ula_out [8] $end
$var wire 1 > ula_out [7] $end
$var wire 1 ? ula_out [6] $end
$var wire 1 @ ula_out [5] $end
$var wire 1 A ula_out [4] $end
$var wire 1 B ula_out [3] $end
$var wire 1 C ula_out [2] $end
$var wire 1 D ula_out [1] $end
$var wire 1 E ula_out [0] $end

$scope module i1 $end
$var wire 1 F gnd $end
$var wire 1 G vcc $end
$var wire 1 H unknown $end
$var wire 1 I devoe $end
$var wire 1 J devclrn $end
$var wire 1 K devpor $end
$var wire 1 L ww_devoe $end
$var wire 1 M ww_devclrn $end
$var wire 1 N ww_devpor $end
$var wire 1 O ww_clock $end
$var wire 1 P ww_ula_out [31] $end
$var wire 1 Q ww_ula_out [30] $end
$var wire 1 R ww_ula_out [29] $end
$var wire 1 S ww_ula_out [28] $end
$var wire 1 T ww_ula_out [27] $end
$var wire 1 U ww_ula_out [26] $end
$var wire 1 V ww_ula_out [25] $end
$var wire 1 W ww_ula_out [24] $end
$var wire 1 X ww_ula_out [23] $end
$var wire 1 Y ww_ula_out [22] $end
$var wire 1 Z ww_ula_out [21] $end
$var wire 1 [ ww_ula_out [20] $end
$var wire 1 \ ww_ula_out [19] $end
$var wire 1 ] ww_ula_out [18] $end
$var wire 1 ^ ww_ula_out [17] $end
$var wire 1 _ ww_ula_out [16] $end
$var wire 1 ` ww_ula_out [15] $end
$var wire 1 a ww_ula_out [14] $end
$var wire 1 b ww_ula_out [13] $end
$var wire 1 c ww_ula_out [12] $end
$var wire 1 d ww_ula_out [11] $end
$var wire 1 e ww_ula_out [10] $end
$var wire 1 f ww_ula_out [9] $end
$var wire 1 g ww_ula_out [8] $end
$var wire 1 h ww_ula_out [7] $end
$var wire 1 i ww_ula_out [6] $end
$var wire 1 j ww_ula_out [5] $end
$var wire 1 k ww_ula_out [4] $end
$var wire 1 l ww_ula_out [3] $end
$var wire 1 m ww_ula_out [2] $end
$var wire 1 n ww_ula_out [1] $end
$var wire 1 o ww_ula_out [0] $end
$var wire 1 p ww_control_points_pin [3] $end
$var wire 1 q ww_control_points_pin [2] $end
$var wire 1 r ww_control_points_pin [1] $end
$var wire 1 s ww_control_points_pin [0] $end
$var wire 1 t \ula_out[0]~output_o\ $end
$var wire 1 u \ula_out[1]~output_o\ $end
$var wire 1 v \ula_out[2]~output_o\ $end
$var wire 1 w \ula_out[3]~output_o\ $end
$var wire 1 x \ula_out[4]~output_o\ $end
$var wire 1 y \ula_out[5]~output_o\ $end
$var wire 1 z \ula_out[6]~output_o\ $end
$var wire 1 { \ula_out[7]~output_o\ $end
$var wire 1 | \ula_out[8]~output_o\ $end
$var wire 1 } \ula_out[9]~output_o\ $end
$var wire 1 ~ \ula_out[10]~output_o\ $end
$var wire 1 !! \ula_out[11]~output_o\ $end
$var wire 1 "! \ula_out[12]~output_o\ $end
$var wire 1 #! \ula_out[13]~output_o\ $end
$var wire 1 $! \ula_out[14]~output_o\ $end
$var wire 1 %! \ula_out[15]~output_o\ $end
$var wire 1 &! \ula_out[16]~output_o\ $end
$var wire 1 '! \ula_out[17]~output_o\ $end
$var wire 1 (! \ula_out[18]~output_o\ $end
$var wire 1 )! \ula_out[19]~output_o\ $end
$var wire 1 *! \ula_out[20]~output_o\ $end
$var wire 1 +! \ula_out[21]~output_o\ $end
$var wire 1 ,! \ula_out[22]~output_o\ $end
$var wire 1 -! \ula_out[23]~output_o\ $end
$var wire 1 .! \ula_out[24]~output_o\ $end
$var wire 1 /! \ula_out[25]~output_o\ $end
$var wire 1 0! \ula_out[26]~output_o\ $end
$var wire 1 1! \ula_out[27]~output_o\ $end
$var wire 1 2! \ula_out[28]~output_o\ $end
$var wire 1 3! \ula_out[29]~output_o\ $end
$var wire 1 4! \ula_out[30]~output_o\ $end
$var wire 1 5! \ula_out[31]~output_o\ $end
$var wire 1 6! \control_points_pin[0]~output_o\ $end
$var wire 1 7! \control_points_pin[1]~output_o\ $end
$var wire 1 8! \control_points_pin[2]~output_o\ $end
$var wire 1 9! \control_points_pin[3]~output_o\ $end
$var wire 1 :! \clock~input_o\ $end
$var wire 1 ;! \data_flow|pc|register_out[2]~0_combout\ $end
$var wire 1 <! \data_flow|adder|Add0~9_sumout\ $end
$var wire 1 =! \data_flow|adder|Add0~10\ $end
$var wire 1 >! \data_flow|adder|Add0~5_sumout\ $end
$var wire 1 ?! \data_flow|adder|Add0~6\ $end
$var wire 1 @! \data_flow|adder|Add0~1_sumout\ $end
$var wire 1 A! \data_flow|adder|Add0~2\ $end
$var wire 1 B! \data_flow|adder|Add0~29_sumout\ $end
$var wire 1 C! \data_flow|adder|Add0~30\ $end
$var wire 1 D! \data_flow|adder|Add0~25_sumout\ $end
$var wire 1 E! \data_flow|adder|Add0~26\ $end
$var wire 1 F! \data_flow|adder|Add0~21_sumout\ $end
$var wire 1 G! \data_flow|adder|Add0~22\ $end
$var wire 1 H! \data_flow|adder|Add0~17_sumout\ $end
$var wire 1 I! \data_flow|adder|Add0~18\ $end
$var wire 1 J! \data_flow|adder|Add0~13_sumout\ $end
$var wire 1 K! \data_flow|rom|data_rom~0_combout\ $end
$var wire 1 L! \data_flow|rom|data_rom~1_combout\ $end
$var wire 1 M! \data_flow|pc|register_out\ [31] $end
$var wire 1 N! \data_flow|pc|register_out\ [30] $end
$var wire 1 O! \data_flow|pc|register_out\ [29] $end
$var wire 1 P! \data_flow|pc|register_out\ [28] $end
$var wire 1 Q! \data_flow|pc|register_out\ [27] $end
$var wire 1 R! \data_flow|pc|register_out\ [26] $end
$var wire 1 S! \data_flow|pc|register_out\ [25] $end
$var wire 1 T! \data_flow|pc|register_out\ [24] $end
$var wire 1 U! \data_flow|pc|register_out\ [23] $end
$var wire 1 V! \data_flow|pc|register_out\ [22] $end
$var wire 1 W! \data_flow|pc|register_out\ [21] $end
$var wire 1 X! \data_flow|pc|register_out\ [20] $end
$var wire 1 Y! \data_flow|pc|register_out\ [19] $end
$var wire 1 Z! \data_flow|pc|register_out\ [18] $end
$var wire 1 [! \data_flow|pc|register_out\ [17] $end
$var wire 1 \! \data_flow|pc|register_out\ [16] $end
$var wire 1 ]! \data_flow|pc|register_out\ [15] $end
$var wire 1 ^! \data_flow|pc|register_out\ [14] $end
$var wire 1 _! \data_flow|pc|register_out\ [13] $end
$var wire 1 `! \data_flow|pc|register_out\ [12] $end
$var wire 1 a! \data_flow|pc|register_out\ [11] $end
$var wire 1 b! \data_flow|pc|register_out\ [10] $end
$var wire 1 c! \data_flow|pc|register_out\ [9] $end
$var wire 1 d! \data_flow|pc|register_out\ [8] $end
$var wire 1 e! \data_flow|pc|register_out\ [7] $end
$var wire 1 f! \data_flow|pc|register_out\ [6] $end
$var wire 1 g! \data_flow|pc|register_out\ [5] $end
$var wire 1 h! \data_flow|pc|register_out\ [4] $end
$var wire 1 i! \data_flow|pc|register_out\ [3] $end
$var wire 1 j! \data_flow|pc|register_out\ [2] $end
$var wire 1 k! \data_flow|pc|register_out\ [1] $end
$var wire 1 l! \data_flow|pc|register_out\ [0] $end
$var wire 1 m! \data_flow|rom|ALT_INV_data_rom~0_combout\ $end
$var wire 1 n! \data_flow|pc|ALT_INV_register_out\ [10] $end
$var wire 1 o! \data_flow|pc|ALT_INV_register_out\ [9] $end
$var wire 1 p! \data_flow|pc|ALT_INV_register_out\ [8] $end
$var wire 1 q! \data_flow|pc|ALT_INV_register_out\ [7] $end
$var wire 1 r! \data_flow|pc|ALT_INV_register_out\ [6] $end
$var wire 1 s! \data_flow|pc|ALT_INV_register_out\ [5] $end
$var wire 1 t! \data_flow|pc|ALT_INV_register_out\ [4] $end
$var wire 1 u! \data_flow|pc|ALT_INV_register_out\ [3] $end
$var wire 1 v! \data_flow|pc|ALT_INV_register_out\ [2] $end
$upscope $end
$upscope $end
$enddefinitions $end
#0
$dumpvars
0!
0F
1G
xH
1I
1J
1K
1L
1M
1N
0O
0t
0u
1v
0w
0x
0y
0z
0{
0|
0}
0~
0!!
0"!
0#!
0$!
0%!
0&!
0'!
0(!
0)!
0*!
0+!
0,!
0-!
0.!
0/!
00!
01!
02!
03!
04!
05!
06!
07!
08!
19!
0:!
1;!
0<!
0=!
0>!
0?!
0@!
0A!
0B!
0C!
0D!
0E!
0F!
0G!
0H!
0I!
0J!
1K!
1L!
0m!
0&
0'
0(
0)
0*
0+
0,
0-
0.
0/
00
01
02
03
04
05
06
07
08
09
0:
0;
0<
0=
0>
0?
0@
0A
0B
1C
0D
0E
1"
0#
0$
0%
0P
0Q
0R
0S
0T
0U
0V
0W
0X
0Y
0Z
0[
0\
0]
0^
0_
0`
0a
0b
0c
0d
0e
0f
0g
0h
0i
0j
0k
0l
1m
0n
0o
1p
0q
0r
0s
xM!
xN!
xO!
xP!
xQ!
xR!
xS!
xT!
xU!
xV!
xW!
xX!
xY!
xZ!
x[!
x\!
x]!
x^!
x_!
x`!
xa!
0b!
0c!
0d!
0e!
0f!
0g!
0h!
0i!
0j!
xk!
xl!
1n!
1o!
1p!
1q!
1r!
1s!
1t!
1u!
1v!
$end
#10000
1!
1O
1:!
1j!
0v!
0;!
1<!
0L!
09!
0p
0"
#20000
0!
0O
0:!
#30000
1!
1O
1:!
0j!
1i!
0u!
1v!
1;!
#40000
0!
0O
0:!
#50000
1!
1O
1:!
1j!
0v!
0;!
0<!
1=!
1>!
#60000
0!
0O
0:!
#70000
1!
1O
1:!
0j!
0i!
1h!
0t!
1u!
1v!
1;!
0=!
0>!
1?!
1@!
1>!
0?!
0@!
#80000
0!
0O
0:!
#90000
1!
1O
1:!
1j!
0v!
0;!
1<!
#100000
0!
0O
0:!
#110000
1!
1O
1:!
0j!
1i!
0u!
1v!
1;!
#120000
0!
0O
0:!
#130000
1!
1O
1:!
1j!
0v!
0;!
0<!
1=!
0>!
1?!
1@!
#140000
0!
0O
0:!
#150000
1!
1O
1:!
0j!
0i!
0h!
1g!
0s!
1t!
1u!
1v!
1;!
0=!
1>!
0?!
0@!
1A!
1B!
1@!
0A!
0>!
0B!
#160000
0!
0O
0:!
#170000
1!
1O
1:!
1j!
0v!
0;!
1<!
#180000
0!
0O
0:!
#190000
1!
1O
1:!
0j!
1i!
0u!
1v!
1;!
#200000
0!
0O
0:!
#210000
1!
1O
1:!
1j!
0v!
0;!
0<!
1=!
1>!
#220000
0!
0O
0:!
#230000
1!
1O
1:!
0j!
0i!
1h!
0t!
1u!
1v!
1;!
0=!
0>!
1?!
0@!
1A!
1>!
0?!
1@!
0A!
1B!
0B!
#240000
0!
0O
0:!
#250000
1!
1O
1:!
1j!
0v!
0;!
1<!
#260000
0!
0O
0:!
#270000
1!
1O
1:!
0j!
1i!
0u!
1v!
1;!
#280000
0!
0O
0:!
#290000
1!
1O
1:!
1j!
0v!
0;!
0<!
1=!
0>!
1?!
0@!
1A!
1B!
#300000
0!
0O
0:!
#310000
1!
1O
1:!
0j!
0i!
0h!
0g!
1f!
0r!
1s!
1t!
1u!
1v!
1;!
0=!
1>!
0?!
1@!
0A!
1L!
0B!
1C!
0K!
1m!
1D!
1B!
0C!
0@!
0>!
0L!
0D!
19!
1p
1"
09!
0p
0"
#320000
0!
0O
0:!
#330000
1!
1O
1:!
1j!
0v!
0;!
1<!
#340000
0!
0O
0:!
#350000
1!
1O
1:!
0j!
1i!
0u!
1v!
1;!
#360000
0!
0O
0:!
#370000
1!
1O
1:!
1j!
0v!
0;!
0<!
1=!
1>!
#380000
0!
0O
0:!
#390000
1!
1O
1:!
0j!
0i!
1h!
0t!
1u!
1v!
1;!
0=!
0>!
1?!
1@!
1>!
0?!
0@!
#400000
0!
0O
0:!
#410000
1!
1O
1:!
1j!
0v!
0;!
1<!
#420000
0!
0O
0:!
#430000
1!
1O
1:!
0j!
1i!
0u!
1v!
1;!
#440000
0!
0O
0:!
#450000
1!
1O
1:!
1j!
0v!
0;!
0<!
1=!
0>!
1?!
1@!
#460000
0!
0O
0:!
#470000
1!
1O
1:!
0j!
0i!
0h!
1g!
0s!
1t!
1u!
1v!
1;!
0=!
1>!
0?!
0@!
1A!
0B!
1C!
1@!
0A!
0>!
1B!
0C!
1D!
0D!
#480000
0!
0O
0:!
#490000
1!
1O
1:!
1j!
0v!
0;!
1<!
#500000
0!
0O
0:!
#510000
1!
1O
1:!
0j!
1i!
0u!
1v!
1;!
#520000
0!
0O
0:!
#530000
1!
1O
1:!
1j!
0v!
0;!
0<!
1=!
1>!
#540000
0!
0O
0:!
#550000
1!
1O
1:!
0j!
0i!
1h!
0t!
1u!
1v!
1;!
0=!
0>!
1?!
0@!
1A!
1>!
0?!
1@!
0A!
0B!
1C!
1D!
1B!
0C!
0D!
#560000
0!
0O
0:!
#570000
1!
1O
1:!
1j!
0v!
0;!
1<!
#580000
0!
0O
0:!
#590000
1!
1O
1:!
0j!
1i!
0u!
1v!
1;!
#600000
0!
0O
0:!
#610000
1!
1O
1:!
1j!
0v!
0;!
0<!
1=!
0>!
1?!
0@!
1A!
0B!
1C!
1D!
#620000
0!
0O
0:!
#630000
1!
1O
1:!
0j!
0i!
0h!
0g!
0f!
1e!
0q!
1r!
1s!
1t!
1u!
1v!
1;!
0=!
1>!
0?!
1@!
0A!
1B!
0C!
0D!
1E!
1F!
1D!
0E!
0B!
0@!
0>!
0F!
#640000
0!
0O
0:!
#650000
1!
1O
1:!
1j!
0v!
0;!
1<!
#660000
0!
0O
0:!
#670000
1!
1O
1:!
0j!
1i!
0u!
1v!
1;!
#680000
0!
0O
0:!
#690000
1!
1O
1:!
1j!
0v!
0;!
0<!
1=!
1>!
#700000
0!
0O
0:!
#710000
1!
1O
1:!
0j!
0i!
1h!
0t!
1u!
1v!
1;!
0=!
0>!
1?!
1@!
1>!
0?!
0@!
#720000
0!
0O
0:!
#730000
1!
1O
1:!
1j!
0v!
0;!
1<!
#740000
0!
0O
0:!
#750000
1!
1O
1:!
0j!
1i!
0u!
1v!
1;!
#760000
0!
0O
0:!
#770000
1!
1O
1:!
1j!
0v!
0;!
0<!
1=!
0>!
1?!
1@!
#780000
0!
0O
0:!
#790000
1!
1O
1:!
0j!
0i!
0h!
1g!
0s!
1t!
1u!
1v!
1;!
0=!
1>!
0?!
0@!
1A!
1B!
1@!
0A!
0>!
0B!
#800000
0!
0O
0:!
#810000
1!
1O
1:!
1j!
0v!
0;!
1<!
#820000
0!
0O
0:!
#830000
1!
1O
1:!
0j!
1i!
0u!
1v!
1;!
#840000
0!
0O
0:!
#850000
1!
1O
1:!
1j!
0v!
0;!
0<!
1=!
1>!
#860000
0!
0O
0:!
#870000
1!
1O
1:!
0j!
0i!
1h!
0t!
1u!
1v!
1;!
0=!
0>!
1?!
0@!
1A!
1>!
0?!
1@!
0A!
1B!
0B!
#880000
0!
0O
0:!
#890000
1!
1O
1:!
1j!
0v!
0;!
1<!
#900000
0!
0O
0:!
#910000
1!
1O
1:!
0j!
1i!
0u!
1v!
1;!
#920000
0!
0O
0:!
#930000
1!
1O
1:!
1j!
0v!
0;!
0<!
1=!
0>!
1?!
0@!
1A!
1B!
#940000
0!
0O
0:!
#950000
1!
1O
1:!
0j!
0i!
0h!
0g!
1f!
0r!
1s!
1t!
1u!
1v!
1;!
0=!
1>!
0?!
1@!
0A!
0B!
1C!
0D!
1E!
1B!
0C!
0@!
0>!
1D!
0E!
1F!
0F!
#960000
0!
0O
0:!
#970000
1!
1O
1:!
1j!
0v!
0;!
1<!
#980000
0!
0O
0:!
#990000
1!
1O
1:!
0j!
1i!
0u!
1v!
1;!
